Rのadverbial::step_by_step()でデータ処理を導く – UchidaMizuki
…
data_wrangler(as_tibble(penguins))

# Steps:
# ☐ 1. select_step:    データフレームから列を選択
# ☐ 2. filter_step:    データフレームから行を絞り込み
# ☐ 3. mutate_step:    データフレームの列を変換
# ☐ 4. summarise_step: データフレームを集計
# ☐ 5. arrange_step:   データフレームの行を並べ替え
# ℹ Please call `select_step()` to continue.
#
# A tibble: 344 × 8
   species island    bill_len bill_dep flipper_len body_mass sex     year
 * <fct>   <fct>        <dbl>    <dbl>       <int>     <int> <fct>  <int>
 1 Adelie  Torgersen     39.1     18.7         181      3750 male    2007
 2 Adelie  Torgersen     39.5     17.4         186      3800 female  2007
 3 Adelie  Torgersen     40.3     18           195      3250 female  2007
 4 Adelie  Torgersen     NA       NA            NA        NA <NA>    2007
 5 Adelie  Torgersen     36.7     19.3         193      3450 female  2007
 6 Adelie  Torgersen     39.3     20.6         190      3650 male    2007
 7 Adelie  Torgersen     38.9     17.8         181      3625 female  2007
 8 Adelie  Torgersen     39.2     19.6         195      4675 male    2007
 9 Adelie  Torgersen     34.1     18.1         193      3475 <NA>    2007
10 Adelie  Torgersen     42       20.2         190      4250 <NA>    2007
# ℹ 334 more rows
…
