UchidaMizuki - Rで日本地図を描いてみよう
…
         pref_name = pref_name |> 
           str_remove("-.+$"),
         pref_name = case_when(pref_name == "Gumma" ~ "Gunma",
                               TRUE ~ pref_name),
         
         foreigner_ratio = parse_number(foreigners_per_100K) / 1e5,
         .keep = "unused")

foreigner_ratio_2015

# A tibble: 47 × 3
   pref_code pref_name foreigner_ratio
       <int> <chr>               <dbl>
 1         1 Hokkaido          0.00403
 2         2 Aomori            0.00264
 3         3 Iwate             0.00392
 4         4 Miyagi            0.00599
 5         5 Akita             0.00285
 6         6 Yamagata          0.00490
 7         7 Fukushima         0.00456
 8         8 Ibaraki           0.0142 
 9         9 Tochigi           0.0134 
10        10 Gunma             0.0188 
# ℹ 37 more rows
…
ここでは，str_to_title()で修正

また，日本地図全体を表示するためには，expand_limits() などで軸を設定すること必要になります．

# pak::pak("maps")
# pak::pak("mapdata")
library(tidyverse)
library(mapdata)

map_data_japan <- map_data("japan") |> 
  as_tibble() |> 
  mutate(region = str_to_title(region))
map_data_japan

# A tibble: 46,975 × 6
    long   lat group order region   subregion
   <dbl> <dbl> <dbl> <int> <chr>    <chr>    
 1  140.  42.3     1     1 Hokkaido <NA>     
 2  140.  42.3     1     2 Hokkaido <NA>     
 3  140.  42.3     1     3 Hokkaido <NA>     
 4  140.  42.3     1     4 Hokkaido <NA>     
 5  140.  42.3     1     5 Hokkaido <NA>     
 6  140.  42.3     1     6 Hokkaido <NA>     
 7  140.  42.3     1     7 Hokkaido <NA>     
 8  140.  42.3     1     8 Hokkaido <NA>     
 9  140.  42.3     1     9 Hokkaido <NA>     
10  140.  42.3     1    10 Hokkaido <NA>     
# ℹ 46,965 more rows
…
日本語の都道府県名や都道府県コードが含む都道府県データを提供（jpmap::prefecture）

琉球諸島・小笠原諸島を再配置したレイアウトを可能に（jpmap::layout_islands()）

jpmap::layout_islands() で地図のレイアウトを変更することで，都道府県ごとの傾向がよりわかりやすくなります．

# pak::pak("UchidaMizuki/jpmap")
jpmap::prefecture

Simple feature collection with 47 features and 3 fields
Geometry type: MULTIPOLYGON
Dimension:     XY
Bounding box:  xmin: 122.9382 ymin: 24.2121 xmax: 153.9856 ymax: 45.52041
Geodetic CRS:  JGD2011
# A tibble: 47 × 4
   pref_code pref_name pref_name_ja                                     geometry
       <int> <chr>     <chr>                                  <MULTIPOLYGON [°]>
 1         1 Hokkaido  北海道       (((143.8965 44.15815, 143.9118 44.15229, 14…
 2         2 Aomori    青森県       (((139.9438 40.42928, 139.9426 40.43439, 13…
 3         3 Iwate     岩手県       (((141.681 40.45101, 141.6909 40.44229, 141…
 4         4 Miyagi    宮城県       (((141.6403 38.9675, 141.6406 38.9652, 141.…
 5         5 Akita     秋田県       (((139.8809 39.11511, 139.8919 39.13321, 13…
 6         6 Yamagata  山形県       (((139.5487 38.545, 139.5801 38.60688, 139.…
 7         7 Fukushima 福島県       (((140.9332 37.8898, 140.9334 37.88923, 140…
 8         8 Ibaraki   茨城県       (((140.7973 36.84649, 140.7931 36.83755, 14…
 9         9 Tochigi   栃木県       (((139.6537 36.20314, 139.6385 36.22575, 13…
10        10 Gunma     群馬県       (((138.6795 36.73065, 138.7227 36.74918, 13…
# ℹ 37 more rows
…
