Let’s try using Parquet instead of CSV – UchidaMizuki
…
who_longer <- who |> 
  pivot_longer(cols = new_sp_m014:newrel_f65,
               names_to = c("diagnosis", "gender", "age"), 
               names_pattern = "new_?(.*)_(.)(.*)",
               names_transform = list(gender = ~ .x |> 
                                        readr::parse_factor(levels = levels_gender),
                                      age = ~ .x |> 
                                        readr::parse_factor(levels = levels_age,
                                                            ordered = TRUE)),
               values_to = "count")

# Before tidying
print(who, n = 5)

# A tibble: 7,240 × 60
  country   iso2  iso3   year new_sp_m014 new_sp_m1524 new_sp_m2534 new_sp_m3544
  <chr>     <chr> <chr> <dbl>       <dbl>        <dbl>        <dbl>        <dbl>
1 Afghanis… AF    AFG    1980          NA           NA           NA           NA
2 Afghanis… AF    AFG    1981          NA           NA           NA           NA
3 Afghanis… AF    AFG    1982          NA           NA           NA           NA
4 Afghanis… AF    AFG    1983          NA           NA           NA           NA
5 Afghanis… AF    AFG    1984          NA           NA           NA           NA
# ℹ 7,235 more rows
# ℹ 52 more variables: new_sp_m4554 <dbl>, new_sp_m5564 <dbl>,
#   new_sp_m65 <dbl>, new_sp_f014 <dbl>, new_sp_f1524 <dbl>,
#   new_sp_f2534 <dbl>, new_sp_f3544 <dbl>, new_sp_f4554 <dbl>,
#   new_sp_f5564 <dbl>, new_sp_f65 <dbl>, new_sn_m014 <dbl>,
#   new_sn_m1524 <dbl>, new_sn_m2534 <dbl>, new_sn_m3544 <dbl>,
#   new_sn_m4554 <dbl>, new_sn_m5564 <dbl>, new_sn_m65 <dbl>, …

# After tidying
print(who_longer, n = 5)

# A tibble: 405,440 × 8
  country     iso2  iso3   year diagnosis gender age   count
  <chr>       <chr> <chr> <dbl> <chr>     <fct>  <ord> <dbl>
1 Afghanistan AF    AFG    1980 sp        m      014      NA
2 Afghanistan AF    AFG    1980 sp        m      1524     NA
3 Afghanistan AF    AFG    1980 sp        m      2534     NA
4 Afghanistan AF    AFG    1980 sp        m      3544     NA
5 Afghanistan AF    AFG    1980 sp        m      4554     NA
# ℹ 405,435 more rows
…
With Parquet, by setting as_data_frame = FALSE when reading, you can, just like with SQL, filter and aggregate data without loading it into memory.

Here, let’s calculate the number of patients in Japan by year and diagnosis. You can efficiently build the query using dplyr functions such as filter(), group_by(), and summarise(). Finally, calling collect() outputs the result as a data frame.

read_parquet("who_longer.parquet",
             as_data_frame = FALSE) |> 
  filter(country == "Japan",
         !is.na(count)) |> 
  group_by(country, year, diagnosis) |> 
  summarise(count = sum(count),
            .groups = "drop") |> 
  collect()

# A tibble: 33 × 4
   country  year diagnosis count
   <chr>   <dbl> <chr>     <dbl>
 1 Japan    1995 sp        14367
 2 Japan    1996 sp        12867
 3 Japan    1997 sp        13571
 4 Japan    1998 sp        11935
 5 Japan    2001 sp        11408
 6 Japan    2002 sp        10807
 7 Japan    2003 sp        10843
 8 Japan    2004 sp        10471
 9 Japan    1999 sp        12909
10 Japan    2000 sp        11853
# ℹ 23 more rows
…
open_dataset("who_longer_byage") |> 
  filter(country == "Japan",
         !is.na(count)) |> 
  group_by(country, year, diagnosis) |> 
  summarise(count = sum(count),
            .groups = "drop") |> 
  collect()

# A tibble: 33 × 4
   country  year diagnosis count
   <chr>   <dbl> <chr>     <dbl>
 1 Japan    1995 sp        14367
 2 Japan    1996 sp        12867
 3 Japan    1997 sp        13571
 4 Japan    1998 sp        11935
 5 Japan    2001 sp        11408
 6 Japan    2002 sp        10807
 7 Japan    2003 sp        10843
 8 Japan    2004 sp        10471
 9 Japan    2005 sp        10931
10 Japan    2006 sp        10159
# ℹ 23 more rows
…
